{
  "categories": {
    "href": "https://api.spotify.com/v1/browse/categories?offset\u003d0\u0026limit\u003d20",
    "items": [
      {
        "href": "https://api.spotify.com/v1/browse/categories/0JQ5DAt0tbjZptfcdMSKl3",
        "id": "0JQ5DAt0tbjZptfcdMSKl3",
        "icons": [
          {
            "height": 274,
            "url": "https://t.scdn.co/images/728ed47fc1674feb95f7ac20236eb6d7.jpeg",
            "width": 274
          }
        ],
        "name": "Made For You"
      },
      {
        "href": "https://api.spotify.com/v1/browse/categories/0JQ5DAqbMKFz6FAsUtgAab",
        "id": "0JQ5DAqbMKFz6FAsUtgAab",
        "icons": [
          {
            "height": 274,
            "url": "https://t.scdn.co/images/728ed47fc1674feb95f7ac20236eb6d7.jpeg",
            "width": 274
          }
        ],
        "name": "New Releases"
      },
      {
        "href": "https://api.spotify.com/v1/browse/categories/0JQ5DAqbMKFDKyRxRDLIbk",
        "id": "0JQ5DAqbMKFDKyRxRDLIbk",
        "icons": [
          {
            "height": 274,
            "url": "https://t.scdn.co/images/dec76a385201436281efb6796a54f479.jpeg",
            "width": 274
          }
        ],
        "name": "Happy Holidays"
      },
      {
        "href": "https://api.spotify.com/v1/browse/categories/0JQ5DAqbMKFQ00XGBls6ym",
        "id": "0JQ5DAqbMKFQ00XGBls6ym",
        "icons": [
          {
            "height": 274,
            "url": "https://t.scdn.co/images/728ed47fc1674feb95f7ac20236eb6d7.jpeg",
            "width": 274
          }
        ],
        "name": "Hip-Hop"
      },
      {
        "href": "https://api.spotify.com/v1/browse/categories/0JQ5DAqbMKFEC4WFtoNRpw",
        "id": "0JQ5DAqbMKFEC4WFtoNRpw",
        "icons": [
          {
            "height": 274,
            "url": "https://t.scdn.co/images/728ed47fc1674feb95f7ac20236eb6d7.jpeg",
            "width": 274
          }
        ],
        "name": "Pop"
      },
      {
        "href": "https://api.spotify.com/v1/browse/categories/0JQ5DAqbMKFzHmL4tf05da",
        "id": "0JQ5DAqbMKFzHmL4tf05da",
        "icons": [
          {
            "height": 274,
            "url": "https://t.scdn.co/media/original/mood-274x274_976986a31ac8c49794cbdc7246fd5ad7_274x274.jpg",
            "width": 274
          }
        ],
        "name": "Mood"
      },
      {
        "href": "https://api.spotify.com/v1/browse/categories/0JQ5DAudkNjCgYMM0TZXDw",
        "id": "0JQ5DAudkNjCgYMM0TZXDw",
        "icons": [
          {
            "height": 274,
            "url": "https://charts-images.scdn.co/spotify-charts-logos/music_charts_search_arrow_274x274.jpeg",
            "width": 274
          }
        ],
        "name": "Charts"
      },
      {
        "href": "https://api.spotify.com/v1/browse/categories/0JQ5DAqbMKFDXXwE9BDJAr",
        "id": "0JQ5DAqbMKFDXXwE9BDJAr",
        "icons": [
          {
            "height": 274,
            "url": "https://t.scdn.co/images/728ed47fc1674feb95f7ac20236eb6d7.jpeg",
            "width": 274
          }
        ],
        "name": "Rock"
      },
      {
        "href": "https://api.spotify.com/v1/browse/categories/0JQ5DAqbMKFHOzuVTgTizF",
        "id": "0JQ5DAqbMKFHOzuVTgTizF",
        "icons": [
          {
            "height": 274,
            "url": "https://t.scdn.co/images/728ed47fc1674feb95f7ac20236eb6d7.jpeg",
            "width": 274
          }
        ],
        "name": "Dance/Electronic"
      },
      {
        "href": "https://api.spotify.com/v1/browse/categories/0JQ5IMCbQBLkUxOEesHoGn",
        "id": "0JQ5IMCbQBLkUxOEesHoGn",
        "icons": [
          {
            "height": 274,
            "url": "https://t.scdn.co/images/728ed47fc1674feb95f7ac20236eb6d7.jpeg",
            "width": 274
          }
        ],
        "name": "Skate Noise"
      },
      {
        "href": "https://api.spotify.com/v1/browse/categories/0JQ5DAqbMKFFzDl7qN9Apr",
        "id": "0JQ5DAqbMKFFzDl7qN9Apr",
        "icons": [
          {
            "height": 274,
            "url": "https://t.scdn.co/media/derived/chill-274x274_4c46374f007813dd10b37e8d8fd35b4b_0_0_274_274.jpg",
            "width": 274
          }
        ],
        "name": "Chill"
      },
      {
        "href": "https://api.spotify.com/v1/browse/categories/0JQ5DAtOnAEpjOgUKwXyxj",
        "id": "0JQ5DAtOnAEpjOgUKwXyxj",
        "icons": [
          {
            "height": 274,
            "url": "https://t.scdn.co/images/728ed47fc1674feb95f7ac20236eb6d7.jpeg",
            "width": 274
          }
        ],
        "name": "Discover"
      },
      {
        "href": "https://api.spotify.com/v1/browse/categories/0JQ5DAqbMKFCWjUTdzaG0e",
        "id": "0JQ5DAqbMKFCWjUTdzaG0e",
        "icons": [
          {
            "height": 274,
            "url": "https://t.scdn.co/images/728ed47fc1674feb95f7ac20236eb6d7.jpeg",
            "width": 274
          }
        ],
        "name": "Indie"
      },
      {
        "href": "https://api.spotify.com/v1/browse/categories/0JQ5DAqbMKFIRybaNTYXXy",
        "id": "0JQ5DAqbMKFIRybaNTYXXy",
        "icons": [
          {
            "height": 274,
            "url": "https://t.scdn.co/images/728ed47fc1674feb95f7ac20236eb6d7.jpeg",
            "width": 274
          }
        ],
        "name": "In the car"
      },
      {
        "href": "https://api.spotify.com/v1/browse/categories/0JQ5DAqbMKFImHYGo3eTSg",
        "id": "0JQ5DAqbMKFImHYGo3eTSg",
        "icons": [
          {
            "height": 274,
            "url": "https://t.scdn.co/images/16e40e64d2a74fa8a0a020d456e6541d.jpeg",
            "width": 274
          }
        ],
        "name": "Fresh Finds"
      },
      {
        "href": "https://api.spotify.com/v1/browse/categories/0JQ5DAqbMKFPw634sFwguI",
        "id": "0JQ5DAqbMKFPw634sFwguI",
        "icons": [
          {
            "height": 274,
            "url": "https://t.scdn.co/images/728ed47fc1674feb95f7ac20236eb6d7.jpeg",
            "width": 274
          }
        ],
        "name": "EQUAL"
      },
      {
        "href": "https://api.spotify.com/v1/browse/categories/0JQ5DAqbMKFOOxftoKZxod",
        "id": "0JQ5DAqbMKFOOxftoKZxod",
        "icons": [
          {
            "height": 274,
            "url": "https://i.scdn.co/image/ab67fb8200005cafed2d384c6d8708dc5394fc68",
            "width": 274
          }
        ],
        "name": "RADAR"
      },
      {
        "href": "https://api.spotify.com/v1/browse/categories/0JQ5DAqbMKFAXlCG6QvYQ4",
        "id": "0JQ5DAqbMKFAXlCG6QvYQ4",
        "icons": [
          {
            "height": 274,
            "url": "https://t.scdn.co/media/links/workout-274x274.png",
            "width": 274
          }
        ],
        "name": "Workout"
      },
      {
        "href": "https://api.spotify.com/v1/browse/categories/0JQ5DAqbMKFGvOw3O4nLAf",
        "id": "0JQ5DAqbMKFGvOw3O4nLAf",
        "icons": [
          {
            "height": 274,
            "url": "https://t.scdn.co/images/2078afd91e4d431eb19efc5bee5ab131.jpeg",
            "width": 274
          }
        ],
        "name": "K-pop"
      },
      {
        "href": "https://api.spotify.com/v1/browse/categories/0JQ5DAqbMKFCuoRTxhYWow",
        "id": "0JQ5DAqbMKFCuoRTxhYWow",
        "icons": [
          {
            "height": 274,
            "url": "https://t.scdn.co/media/derived/sleep-274x274_0d4f836af8fab7bf31526968073e671c_0_0_274_274.jpg",
            "width": 274
          }
        ],
        "name": "Sleep"
      }
    ],
    "limit": 20,
    "next": "https://api.spotify.com/v1/browse/categories?offset\u003d20\u0026limit\u003d20",
    "offset": 0,
    "total": 58
  }
}